AccountID,TransactionDate,Comment,MoneyIn,MoneyOut
30113209309343,2013-06-30T23:00:00.000Z,"From Pay",100,0
30113209309343,2013-07-31T23:00:00.000Z,"From Pay",80,0
30113209309343,2013-08-31T23:00:00.000Z,"From Pay",20,0
30113209309343,2013-09-30T23:00:00.000Z,"From Pay",50,0
30113209309343,2013-11-01T00:00:00.000Z,"From Pay",100,0
30113209309343,2015-03-04T00:00:00.000Z,Netflix,0,5.55
